// Jest Snapshot v1, https://goo.gl/fbAQLP

exports[`should match snapshot 1`] = `
<div>
  <div
    class="sc-bdnylx clhOWP"
  >
    <div
      class="sc-gtssRu ewHPNU"
    />
    <p
      class="sc-dlnjPT kgZgUP"
    >
      Loading...
    </p>
  </div>
</div>
`;
